{
	"info": {
		"_postman_id": "84d9f361-8c04-4e13-95b6-026434d81405",
		"name": "HttpServer",
		"schema": "https://schema.getpostman.com/json/collection/v2.1.0/collection.json"
	},
	"item": [
		{
			"name": "HttpServer Group Info JSON",
			"request": {
				"method": "GET",
				"header": [],
				"body": {},
				"url": {
					"raw": "http://127.0.0.1:8081/group/info/5555?format=json",
					"protocol": "http",
					"host": [
						"127",
						"0",
						"0",
						"1"
					],
					"port": "8081",
					"path": [
						"group",
						"info",
						"5555"
					],
					"query": [
						{
							"key": "format",
							"value": "json"
						}
					]
				}
			},
			"response": []
		},
		{
			"name": "HttpServer Group Info XML",
			"request": {
				"method": "GET",
				"header": [],
				"body": {},
				"url": {
					"raw": "http://127.0.0.1:8081/group/info/5555?format=xml",
					"protocol": "http",
					"host": [
						"127",
						"0",
						"0",
						"1"
					],
					"port": "8081",
					"path": [
						"group",
						"info",
						"5555"
					],
					"query": [
						{
							"key": "format",
							"value": "xml"
						}
					]
				}
			},
			"response": []
		},
		{
			"name": "HttpServer Wrong Get Url",
			"request": {
				"method": "GET",
				"header": [],
				"body": {},
				"url": {
					"raw": "http://127.0.0.1:8081/group/edit/1",
					"protocol": "http",
					"host": [
						"127",
						"0",
						"0",
						"1"
					],
					"port": "8081",
					"path": [
						"group",
						"edit",
						"1"
					]
				}
			},
			"response": []
		},
		{
			"name": "HttpServer Save Group",
			"request": {
				"method": "POST",
				"header": [
					{
						"key": "Content-Type",
						"value": "application/x-www-form-urlencoded"
					}
				],
				"body": {
					"mode": "raw",
					"raw": "{\n\t\"name\": \"iu611\",\n    \"curator\": \"Ivanov Ivan Ivanovich\",\n    \"praepotor\": \"Petrov Petr Petrovich\",\n    \"students\": [\n      \"Sergeev Sergei Segeevich\",\n      \"Dmitriev Dmitri Dmitrievich\",\n      \"Andreev Andrei Andreevich\"\n    ]\n}"
				},
				"url": {
					"raw": "http://127.0.0.1:8081/group/save",
					"protocol": "http",
					"host": [
						"127",
						"0",
						"0",
						"1"
					],
					"port": "8081",
					"path": [
						"group",
						"save"
					]
				}
			},
			"response": []
		}
	]
}